<?xml version="1.0" encoding="UTF-8"?>
<robot generator="Robot 7.2.2 (Python 3.11.9 on win32)" generated="2025-05-22T22:44:06.494631" rpa="false" schemaversion="5">
<suite id="s1" name="Base" source="C:\Users\rapha\OneDrive\Documentos\compassuol\Documentos\Semana 10\API Reqres\Robot teste\base.robot">
<test id="s1-t1" name="Cenario: GET listar users" line="16">
<kw name="Criar Sessao" owner="GET_keywords">
<kw name="Create Dictionary" owner="BuiltIn">
<msg time="2025-05-22T22:44:09.774951" level="INFO">&amp;{headers} = { x-api-key=reqres-free-v1 }</msg>
<var>&amp;{headers}</var>
<arg>x-api-key=${API_KEY}</arg>
<doc>Creates and returns a dictionary based on the given ``items``.</doc>
<status status="PASS" start="2025-05-22T22:44:09.774951" elapsed="0.000000"/>
</kw>
<kw name="Create Session" owner="RequestsLibrary">
<msg time="2025-05-22T22:44:09.776041" level="INFO">Creating Session using : alias=reqres, url=https://reqres.in/api, headers={'x-api-key': 'reqres-free-v1'},                     cookies={}, auth=None, timeout=None, proxies=None, verify=False,                     debug=0 </msg>
<arg>reqres</arg>
<arg>${BASE_URL}</arg>
<arg>headers=${headers}</arg>
<doc>Create Session: create a HTTP session to a server</doc>
<status status="PASS" start="2025-05-22T22:44:09.776041" elapsed="0.000000"/>
</kw>
<status status="PASS" start="2025-05-22T22:44:09.744735" elapsed="0.031306"/>
</kw>
<kw name="GET Endpoint /usuarios" owner="GET_keywords">
<kw name="GET On Session" owner="RequestsLibrary">
<msg time="2025-05-22T22:44:10.045091" level="INFO">GET Request : url=https://reqres.in/api/users 
 path_url=/api/users 
 headers={'User-Agent': 'python-requests/2.32.3', 'Accept-Encoding': 'gzip, deflate', 'Accept': '*/*', 'Connection': 'keep-alive', 'x-api-key': 'reqres-free-v1'} 
 body=None 
 </msg>
<msg time="2025-05-22T22:44:10.045091" level="INFO">GET Response : url=https://reqres.in/api/users 
 status=200, reason=OK 
 headers={'Date': 'Fri, 23 May 2025 01:44:10 GMT', 'Content-Type': 'application/json; charset=utf-8', 'Transfer-Encoding': 'chunked', 'Connection': 'keep-alive', 'Cf-Ray': '9440dddae9a409d7-SJK', 'Server': 'cloudflare', 'Content-Encoding': 'gzip', 'Report-To': '{"group":"heroku-nel","max_age":3600,"endpoints":[{"url":"https://nel.heroku.com/reports?ts=1747962765&amp;sid=c4c9725f-1ab0-44d8-820f-430df2718e11&amp;s=FQ8XjPpZxhDIaCyhKsDhz%2FOW%2BDalvDGOdNUw9tA9Kz0%3D"}]}', 'Reporting-Endpoints': 'heroku-nel=https://nel.heroku.com/reports?ts=1747962765&amp;sid=c4c9725f-1ab0-44d8-820f-430df2718e11&amp;s=FQ8XjPpZxhDIaCyhKsDhz%2FOW%2BDalvDGOdNUw9tA9Kz0%3D', 'Nel': '{"report_to":"heroku-nel","max_age":3600,"success_fraction":0.005,"failure_fraction":0.05,"response_headers":["Via"]}', 'X-Powered-By': 'Express', 'Access-Control-Allow-Origin': '*', 'Ratelimit-Policy': '100;w=60', 'Ratelimit-Limit': '100', 'Ratelimit-Remaining': '98', 'Ratelimit-Reset': '60', 'Etag': 'W/"41e-bY3U72nulxuwNd/TmihMEHjLmek"', 'Via': '1.1 vegur', 'Cache-Control': 'max-age=14400', 'Cf-Cache-Status': 'HIT', 'Age': '1885', 'Vary': 'Accept-Encoding', 'server-timing': 'cfL4;desc="?proto=TCP&amp;rtt=4145&amp;min_rtt=4145&amp;rtt_var=2072&amp;sent=6&amp;recv=6&amp;lost=0&amp;retrans=1&amp;sent_bytes=2852&amp;recv_bytes=795&amp;delivery_rate=353729&amp;cwnd=253&amp;unsent_bytes=0&amp;cid=6e5102bb9b0698eb&amp;ts=68&amp;x=0"'} 
 body={"page":1,"per_page":6,"total":12,"total_pages":2,"data":[{"id":1,"email":"george.bluth@reqres.in","first_name":"George","last_name":"Bluth","avatar":"https://reqres.in/img/faces/1-image.jpg"},{"id":2,"email":"janet.weaver@reqres.in","first_name":"Janet","last_name":"Weaver","avatar":"https://reqres.in/img/faces/2-image.jpg"},{"id":3,"email":"emma.wong@reqres.in","first_name":"Emma","last_name":"Wong","avatar":"https://reqres.in/img/faces/3-image.jpg"},{"id":4,"email":"eve.holt@reqres.in","first_name":"Eve","last_name":"Holt","avatar":"https://reqres.in/img/faces/4-image.jpg"},{"id":5,"email":"charles.morris@reqres.in","first_name":"Charles","last_name":"Morris","avatar":"https://reqres.in/img/faces/5-image.jpg"},{"id":6,"email":"tracey.ramos@reqres.in","first_name":"Tracey","last_name":"Ramos","avatar":"https://reqres.in/img/faces/6-image.jpg"}],"support":{"url":"https://contentcaddy.io?utm_source=reqres&amp;utm_medium=json&amp;utm_campaign=referral","text":"Tired of writing endless social media content? Let Content Caddy generate it for you."}} 
 </msg>
<msg time="2025-05-22T22:44:10.045091" level="INFO">C:\Users\rapha\AppData\Local\Packages\PythonSoftwareFoundation.Python.3.11_qbz5n2kfra8p0\LocalCache\local-packages\Python311\site-packages\urllib3\connectionpool.py:1099: InsecureRequestWarning: Unverified HTTPS request is being made to host 'reqres.in'. Adding certificate verification is strongly advised. See: https://urllib3.readthedocs.io/en/latest/advanced-usage.html#tls-warnings
  warnings.warn(</msg>
<msg time="2025-05-22T22:44:10.045091" level="INFO">${response} = &lt;Response [200]&gt;</msg>
<var>${response}</var>
<arg>reqres</arg>
<arg>/users</arg>
<doc>Sends a GET request on a previously created HTTP Session.</doc>
<status status="PASS" start="2025-05-22T22:44:09.777046" elapsed="0.268045"/>
</kw>
<kw name="Set Global Variable" owner="BuiltIn">
<msg time="2025-05-22T22:44:10.060979" level="INFO">${response} = &lt;Response [200]&gt;</msg>
<arg>${response}</arg>
<doc>Makes a variable available globally in all tests and suites.</doc>
<status status="PASS" start="2025-05-22T22:44:10.060979" elapsed="0.000000"/>
</kw>
<status status="PASS" start="2025-05-22T22:44:09.776041" elapsed="0.284938"/>
</kw>
<kw name="Validar Status Code" owner="GET_keywords">
<kw name="Should Be True" owner="BuiltIn">
<arg>${response.status_code} == ${statuscode}</arg>
<doc>Fails if the given condition is not true.</doc>
<status status="PASS" start="2025-05-22T22:44:10.060979" elapsed="0.000000"/>
</kw>
<arg>200</arg>
<status status="PASS" start="2025-05-22T22:44:10.060979" elapsed="0.000000"/>
</kw>
<status status="PASS" start="2025-05-22T22:44:09.744735" elapsed="0.316244"/>
</test>
<status status="PASS" start="2025-05-22T22:44:06.498654" elapsed="3.562325"/>
</suite>
<statistics>
<total>
<stat pass="1" fail="0" skip="0">All Tests</stat>
</total>
<tag>
</tag>
<suite>
<stat name="Base" id="s1" pass="1" fail="0" skip="0">Base</stat>
</suite>
</statistics>
<errors>
<msg time="2025-05-22T22:44:09.728902" level="ERROR">Error in file 'C:\Users\rapha\OneDrive\Documentos\compassuol\Documentos\Semana 10\API Reqres\Robot teste\GET_keywords.robot' on line 4: Error in file 'C:\Users\rapha\OneDrive\Documentos\compassuol\Documentos\Semana 10\API Reqres\Robot teste\base.robot' on line 14: Resource file with 'Test Cases' section is invalid.</msg>
</errors>
</robot>
